{
    "m_SGVersion": 3,
    "m_Type": "UnityEditor.ShaderGraph.GraphData",
    "m_ObjectId": "a85842db54db460f8f0ea36e43e78d53",
    "m_Properties": [
        {
            "m_Id": "13d4a11eeba64bc981c2cf73c2569820"
        },
        {
            "m_Id": "05b4e089431845568fcc34786a8262ea"
        }
    ],
    "m_Keywords": [],
    "m_Dropdowns": [],
    "m_CategoryData": [
        {
            "m_Id": "46b2eb814c63440e81bea77a510ff4e3"
        }
    ],
    "m_Nodes": [
        {
            "m_Id": "5ca5bab7bfa24cfea18865a7c719f31a"
        },
        {
            "m_Id": "45f7d1ec2426444fb778e80780322354"
        },
        {
            "m_Id": "0f9739308d1843e6b7fc84badaec3184"
        },
        {
            "m_Id": "1ed4f66e55b24e9fbc8e98f29a26bfcd"
        },
        {
            "m_Id": "4c1d104690cc45cd9686cf6aec2bafa1"
        },
        {
            "m_Id": "86ab6d6d6d604f4da07b09dabaaf1805"
        },
        {
            "m_Id": "7689c1c4b42d452aac2ca005cd393fe5"
        },
        {
            "m_Id": "4dfee86fb6684c40ab6570f983d90766"
        },
        {
            "m_Id": "11e3237d291046eea64a0fad11a85bce"
        },
        {
            "m_Id": "37f24c79c2e64343ab3db0028c0c2136"
        },
        {
            "m_Id": "d6a31a32fab0408ebfe21591781245f7"
        },
        {
            "m_Id": "00ae9b0322d04a5c9b916190f5ebdad6"
        },
        {
            "m_Id": "b1e2ffbdfe8e49ac935054f8ebe62ac5"
        }
    ],
    "m_GroupDatas": [],
    "m_StickyNoteDatas": [],
    "m_Edges": [
        {
            "m_OutputSlot": {
                "m_Node": {
                    "m_Id": "00ae9b0322d04a5c9b916190f5ebdad6"
                },
                "m_SlotId": 0
            },
            "m_InputSlot": {
                "m_Node": {
                    "m_Id": "4dfee86fb6684c40ab6570f983d90766"
                },
                "m_SlotId": 1
            }
        },
        {
            "m_OutputSlot": {
                "m_Node": {
                    "m_Id": "0f9739308d1843e6b7fc84badaec3184"
                },
                "m_SlotId": 0
            },
            "m_InputSlot": {
                "m_Node": {
                    "m_Id": "45f7d1ec2426444fb778e80780322354"
                },
                "m_SlotId": 1
            }
        },
        {
            "m_OutputSlot": {
                "m_Node": {
                    "m_Id": "11e3237d291046eea64a0fad11a85bce"
                },
                "m_SlotId": 1
            },
            "m_InputSlot": {
                "m_Node": {
                    "m_Id": "37f24c79c2e64343ab3db0028c0c2136"
                },
                "m_SlotId": 1
            }
        },
        {
            "m_OutputSlot": {
                "m_Node": {
                    "m_Id": "1ed4f66e55b24e9fbc8e98f29a26bfcd"
                },
                "m_SlotId": 1
            },
            "m_InputSlot": {
                "m_Node": {
                    "m_Id": "7689c1c4b42d452aac2ca005cd393fe5"
                },
                "m_SlotId": 0
            }
        },
        {
            "m_OutputSlot": {
                "m_Node": {
                    "m_Id": "37f24c79c2e64343ab3db0028c0c2136"
                },
                "m_SlotId": 2
            },
            "m_InputSlot": {
                "m_Node": {
                    "m_Id": "d6a31a32fab0408ebfe21591781245f7"
                },
                "m_SlotId": 2
            }
        },
        {
            "m_OutputSlot": {
                "m_Node": {
                    "m_Id": "45f7d1ec2426444fb778e80780322354"
                },
                "m_SlotId": 2
            },
            "m_InputSlot": {
                "m_Node": {
                    "m_Id": "1ed4f66e55b24e9fbc8e98f29a26bfcd"
                },
                "m_SlotId": 0
            }
        },
        {
            "m_OutputSlot": {
                "m_Node": {
                    "m_Id": "4c1d104690cc45cd9686cf6aec2bafa1"
                },
                "m_SlotId": 0
            },
            "m_InputSlot": {
                "m_Node": {
                    "m_Id": "86ab6d6d6d604f4da07b09dabaaf1805"
                },
                "m_SlotId": 0
            }
        },
        {
            "m_OutputSlot": {
                "m_Node": {
                    "m_Id": "4dfee86fb6684c40ab6570f983d90766"
                },
                "m_SlotId": 2
            },
            "m_InputSlot": {
                "m_Node": {
                    "m_Id": "11e3237d291046eea64a0fad11a85bce"
                },
                "m_SlotId": 0
            }
        },
        {
            "m_OutputSlot": {
                "m_Node": {
                    "m_Id": "7689c1c4b42d452aac2ca005cd393fe5"
                },
                "m_SlotId": 2
            },
            "m_InputSlot": {
                "m_Node": {
                    "m_Id": "4dfee86fb6684c40ab6570f983d90766"
                },
                "m_SlotId": 0
            }
        },
        {
            "m_OutputSlot": {
                "m_Node": {
                    "m_Id": "86ab6d6d6d604f4da07b09dabaaf1805"
                },
                "m_SlotId": 1
            },
            "m_InputSlot": {
                "m_Node": {
                    "m_Id": "7689c1c4b42d452aac2ca005cd393fe5"
                },
                "m_SlotId": 1
            }
        },
        {
            "m_OutputSlot": {
                "m_Node": {
                    "m_Id": "b1e2ffbdfe8e49ac935054f8ebe62ac5"
                },
                "m_SlotId": 0
            },
            "m_InputSlot": {
                "m_Node": {
                    "m_Id": "d6a31a32fab0408ebfe21591781245f7"
                },
                "m_SlotId": 0
            }
        },
        {
            "m_OutputSlot": {
                "m_Node": {
                    "m_Id": "d6a31a32fab0408ebfe21591781245f7"
                },
                "m_SlotId": 3
            },
            "m_InputSlot": {
                "m_Node": {
                    "m_Id": "5ca5bab7bfa24cfea18865a7c719f31a"
                },
                "m_SlotId": 0
            }
        }
    ],
    "m_VertexContext": {
        "m_Position": {
            "x": 0.0,
            "y": 0.0
        },
        "m_Blocks": []
    },
    "m_FragmentContext": {
        "m_Position": {
            "x": 0.0,
            "y": 0.0
        },
        "m_Blocks": []
    },
    "m_PreviewData": {
        "serializedMesh": {
            "m_SerializedMesh": "{\"mesh\":{\"instanceID\":0}}",
            "m_Guid": ""
        },
        "preventRotation": false
    },
    "m_Path": "Sub Graphs",
    "m_GraphPrecision": 1,
    "m_PreviewMode": 2,
    "m_OutputNode": {
        "m_Id": "5ca5bab7bfa24cfea18865a7c719f31a"
    },
    "m_ActiveTargets": []
}

{
    "m_SGVersion": 0,
    "m_Type": "UnityEditor.ShaderGraph.PropertyNode",
    "m_ObjectId": "00ae9b0322d04a5c9b916190f5ebdad6",
    "m_Group": {
        "m_Id": ""
    },
    "m_Name": "Property",
    "m_DrawState": {
        "m_Expanded": true,
        "m_Position": {
            "serializedVersion": "2",
            "x": -53.199951171875,
            "y": 125.99981689453125,
            "width": 0.0,
            "height": 0.0
        }
    },
    "m_Slots": [
        {
            "m_Id": "500278b1409d423abeccfba660efc712"
        }
    ],
    "synonyms": [],
    "m_Precision": 0,
    "m_PreviewExpanded": true,
    "m_PreviewMode": 0,
    "m_CustomColors": {
        "m_SerializableColors": []
    },
    "m_Property": {
        "m_Id": "13d4a11eeba64bc981c2cf73c2569820"
    }
}

{
    "m_SGVersion": 1,
    "m_Type": "UnityEditor.ShaderGraph.Internal.Vector4ShaderProperty",
    "m_ObjectId": "05b4e089431845568fcc34786a8262ea",
    "m_Guid": {
        "m_GuidSerialized": "1b62b563-46ee-4ad4-9c6e-31bf8c1e18fc"
    },
    "m_Name": "Foam Color Light",
    "m_DefaultRefNameVersion": 1,
    "m_RefNameGeneratedByDisplayName": "Foam Color Light",
    "m_DefaultReferenceName": "_Foam_Color_Light",
    "m_OverrideReferenceName": "",
    "m_GeneratePropertyBlock": true,
    "m_UseCustomSlotLabel": false,
    "m_CustomSlotLabel": "",
    "m_Precision": 0,
    "overrideHLSLDeclaration": false,
    "hlslDeclarationOverride": 0,
    "m_Hidden": false,
    "m_Value": {
        "x": 0.0,
        "y": 0.0,
        "z": 0.0,
        "w": 0.0
    }
}

{
    "m_SGVersion": 0,
    "m_Type": "UnityEditor.ShaderGraph.ScreenPositionNode",
    "m_ObjectId": "0f9739308d1843e6b7fc84badaec3184",
    "m_Group": {
        "m_Id": ""
    },
    "m_Name": "Screen Position",
    "m_DrawState": {
        "m_Expanded": true,
        "m_Position": {
            "serializedVersion": "2",
            "x": -1082.39990234375,
            "y": -200.4000244140625,
            "width": 208.0,
            "height": 311.1998291015625
        }
    },
    "m_Slots": [
        {
            "m_Id": "b5e46c716dbb49ae941ceedad3da2e54"
        }
    ],
    "synonyms": [],
    "m_Precision": 0,
    "m_PreviewExpanded": true,
    "m_PreviewMode": 0,
    "m_CustomColors": {
        "m_SerializableColors": []
    },
    "m_ScreenSpaceType": 0
}

{
    "m_SGVersion": 0,
    "m_Type": "UnityEditor.ShaderGraph.SaturateNode",
    "m_ObjectId": "11e3237d291046eea64a0fad11a85bce",
    "m_Group": {
        "m_Id": ""
    },
    "m_Name": "Saturate",
    "m_DrawState": {
        "m_Expanded": true,
        "m_Position": {
            "serializedVersion": "2",
            "x": 392.79998779296877,
            "y": -74.8001708984375,
            "width": 208.00003051757813,
            "height": 277.5999755859375
        }
    },
    "m_Slots": [
        {
            "m_Id": "2e37d00f82bc4803abc26fd59230f631"
        },
        {
            "m_Id": "b375c55f94f04181a554460578dc38ad"
        }
    ],
    "synonyms": [
        "clamp"
    ],
    "m_Precision": 0,
    "m_PreviewExpanded": true,
    "m_PreviewMode": 0,
    "m_CustomColors": {
        "m_SerializableColors": []
    }
}

{
    "m_SGVersion": 0,
    "m_Type": "UnityEditor.ShaderGraph.DynamicVectorMaterialSlot",
    "m_ObjectId": "12055c182e7a4f72baf16c1de96d23ce",
    "m_Id": 1,
    "m_DisplayName": "B",
    "m_SlotType": 0,
    "m_Hidden": false,
    "m_ShaderOutputName": "B",
    "m_StageCapability": 3,
    "m_Value": {
        "x": 1.0,
        "y": 1.0,
        "z": 1.0,
        "w": 1.0
    },
    "m_DefaultValue": {
        "x": 0.0,
        "y": 0.0,
        "z": 0.0,
        "w": 0.0
    }
}

{
    "m_SGVersion": 1,
    "m_Type": "UnityEditor.ShaderGraph.Internal.Vector1ShaderProperty",
    "m_ObjectId": "13d4a11eeba64bc981c2cf73c2569820",
    "m_Guid": {
        "m_GuidSerialized": "0b0026c0-f18c-4051-a75c-ef75b7768c03"
    },
    "m_Name": "Foam Distance",
    "m_DefaultRefNameVersion": 1,
    "m_RefNameGeneratedByDisplayName": "Foam Distance",
    "m_DefaultReferenceName": "_Foam_Distance",
    "m_OverrideReferenceName": "",
    "m_GeneratePropertyBlock": true,
    "m_UseCustomSlotLabel": false,
    "m_CustomSlotLabel": "",
    "m_Precision": 0,
    "overrideHLSLDeclaration": false,
    "hlslDeclarationOverride": 0,
    "m_Hidden": false,
    "m_Value": 0.0,
    "m_FloatType": 0,
    "m_RangeValues": {
        "x": 0.0,
        "y": 1.0
    }
}

{
    "m_SGVersion": 0,
    "m_Type": "UnityEditor.ShaderGraph.SceneDepthNode",
    "m_ObjectId": "1ed4f66e55b24e9fbc8e98f29a26bfcd",
    "m_Group": {
        "m_Id": ""
    },
    "m_Name": "Scene Depth",
    "m_DrawState": {
        "m_Expanded": true,
        "m_Position": {
            "serializedVersion": "2",
            "x": -381.59991455078127,
            "y": -255.60003662109376,
            "width": 145.5999755859375,
            "height": 110.39996337890625
        }
    },
    "m_Slots": [
        {
            "m_Id": "3c44020595de4b7ab0312bd4ac2b28b8"
        },
        {
            "m_Id": "2a3bc733a4944c59a10982698211ea80"
        }
    ],
    "synonyms": [
        "zbuffer",
        "zdepth"
    ],
    "m_Precision": 0,
    "m_PreviewExpanded": true,
    "m_PreviewMode": 0,
    "m_CustomColors": {
        "m_SerializableColors": []
    },
    "m_DepthSamplingMode": 2
}

{
    "m_SGVersion": 0,
    "m_Type": "UnityEditor.ShaderGraph.Vector1MaterialSlot",
    "m_ObjectId": "2a3bc733a4944c59a10982698211ea80",
    "m_Id": 1,
    "m_DisplayName": "Out",
    "m_SlotType": 1,
    "m_Hidden": false,
    "m_ShaderOutputName": "Out",
    "m_StageCapability": 2,
    "m_Value": 0.0,
    "m_DefaultValue": 0.0,
    "m_Labels": []
}

{
    "m_SGVersion": 0,
    "m_Type": "UnityEditor.ShaderGraph.DynamicVectorMaterialSlot",
    "m_ObjectId": "2e37d00f82bc4803abc26fd59230f631",
    "m_Id": 0,
    "m_DisplayName": "In",
    "m_SlotType": 0,
    "m_Hidden": false,
    "m_ShaderOutputName": "In",
    "m_StageCapability": 3,
    "m_Value": {
        "x": 0.0,
        "y": 0.0,
        "z": 0.0,
        "w": 0.0
    },
    "m_DefaultValue": {
        "x": 0.0,
        "y": 0.0,
        "z": 0.0,
        "w": 0.0
    }
}

{
    "m_SGVersion": 0,
    "m_Type": "UnityEditor.ShaderGraph.StepNode",
    "m_ObjectId": "37f24c79c2e64343ab3db0028c0c2136",
    "m_Group": {
        "m_Id": ""
    },
    "m_Name": "Step",
    "m_DrawState": {
        "m_Expanded": true,
        "m_Position": {
            "serializedVersion": "2",
            "x": 632.7999267578125,
            "y": -170.800048828125,
            "width": 208.00003051757813,
            "height": 301.5999755859375
        }
    },
    "m_Slots": [
        {
            "m_Id": "bf908007d55149ebaa06d30c83bfa018"
        },
        {
            "m_Id": "f2adebff614f4ef18f96056327c8a462"
        },
        {
            "m_Id": "f7500360bfe34a4bac0efaa898d478f5"
        }
    ],
    "synonyms": [],
    "m_Precision": 0,
    "m_PreviewExpanded": true,
    "m_PreviewMode": 0,
    "m_CustomColors": {
        "m_SerializableColors": []
    }
}

{
    "m_SGVersion": 0,
    "m_Type": "UnityEditor.ShaderGraph.ScreenPositionMaterialSlot",
    "m_ObjectId": "3c44020595de4b7ab0312bd4ac2b28b8",
    "m_Id": 0,
    "m_DisplayName": "UV",
    "m_SlotType": 0,
    "m_Hidden": false,
    "m_ShaderOutputName": "UV",
    "m_StageCapability": 3,
    "m_Value": {
        "x": 0.0,
        "y": 0.0,
        "z": 0.0,
        "w": 0.0
    },
    "m_DefaultValue": {
        "x": 0.0,
        "y": 0.0,
        "z": 0.0,
        "w": 0.0
    },
    "m_Labels": [],
    "m_ScreenSpaceType": 0
}

{
    "m_SGVersion": 0,
    "m_Type": "UnityEditor.ShaderGraph.DynamicVectorMaterialSlot",
    "m_ObjectId": "405439af04bc4299ad014c4503a62475",
    "m_Id": 0,
    "m_DisplayName": "A",
    "m_SlotType": 0,
    "m_Hidden": false,
    "m_ShaderOutputName": "A",
    "m_StageCapability": 3,
    "m_Value": {
        "x": 1.0,
        "y": 1.0,
        "z": 1.0,
        "w": 1.0
    },
    "m_DefaultValue": {
        "x": 0.0,
        "y": 0.0,
        "z": 0.0,
        "w": 0.0
    }
}

{
    "m_SGVersion": 0,
    "m_Type": "UnityEditor.ShaderGraph.DynamicVectorMaterialSlot",
    "m_ObjectId": "447f317bd5c14e7c9da723cf5f8f7ba4",
    "m_Id": 2,
    "m_DisplayName": "Out",
    "m_SlotType": 1,
    "m_Hidden": false,
    "m_ShaderOutputName": "Out",
    "m_StageCapability": 3,
    "m_Value": {
        "x": 0.0,
        "y": 0.0,
        "z": 0.0,
        "w": 0.0
    },
    "m_DefaultValue": {
        "x": 0.0,
        "y": 0.0,
        "z": 0.0,
        "w": 0.0
    }
}

{
    "m_SGVersion": 0,
    "m_Type": "UnityEditor.ShaderGraph.AddNode",
    "m_ObjectId": "45f7d1ec2426444fb778e80780322354",
    "m_Group": {
        "m_Id": ""
    },
    "m_Name": "Add",
    "m_DrawState": {
        "m_Expanded": true,
        "m_Position": {
            "serializedVersion": "2",
            "x": -687.9999389648438,
            "y": -322.0001220703125,
            "width": 208.0,
            "height": 301.60009765625
        }
    },
    "m_Slots": [
        {
            "m_Id": "ae115ed9825e4a3bb1b18501fa474283"
        },
        {
            "m_Id": "d5e67387f5ca430d830856a7f1341284"
        },
        {
            "m_Id": "447f317bd5c14e7c9da723cf5f8f7ba4"
        }
    ],
    "synonyms": [
        "addition",
        "sum",
        "plus"
    ],
    "m_Precision": 0,
    "m_PreviewExpanded": true,
    "m_PreviewMode": 0,
    "m_CustomColors": {
        "m_SerializableColors": []
    }
}

{
    "m_SGVersion": 0,
    "m_Type": "UnityEditor.ShaderGraph.CategoryData",
    "m_ObjectId": "46b2eb814c63440e81bea77a510ff4e3",
    "m_Name": "",
    "m_ChildObjectList": [
        {
            "m_Id": "13d4a11eeba64bc981c2cf73c2569820"
        },
        {
            "m_Id": "05b4e089431845568fcc34786a8262ea"
        }
    ]
}

{
    "m_SGVersion": 0,
    "m_Type": "UnityEditor.ShaderGraph.DynamicVectorMaterialSlot",
    "m_ObjectId": "4ba64ada78f54d80b374fd1889a8a1b2",
    "m_Id": 1,
    "m_DisplayName": "B",
    "m_SlotType": 0,
    "m_Hidden": false,
    "m_ShaderOutputName": "B",
    "m_StageCapability": 3,
    "m_Value": {
        "x": 2.0,
        "y": 2.0,
        "z": 2.0,
        "w": 2.0
    },
    "m_DefaultValue": {
        "x": 0.0,
        "y": 0.0,
        "z": 0.0,
        "w": 0.0
    }
}

{
    "m_SGVersion": 0,
    "m_Type": "UnityEditor.ShaderGraph.ScreenPositionNode",
    "m_ObjectId": "4c1d104690cc45cd9686cf6aec2bafa1",
    "m_Group": {
        "m_Id": ""
    },
    "m_Name": "Screen Position",
    "m_DrawState": {
        "m_Expanded": true,
        "m_Position": {
            "serializedVersion": "2",
            "x": -852.7999877929688,
            "y": 21.9998779296875,
            "width": 208.0,
            "height": 311.2000732421875
        }
    },
    "m_Slots": [
        {
            "m_Id": "586e2e01632b4cbeac0ddbfaf43fa1a5"
        }
    ],
    "synonyms": [],
    "m_Precision": 0,
    "m_PreviewExpanded": true,
    "m_PreviewMode": 0,
    "m_CustomColors": {
        "m_SerializableColors": []
    },
    "m_ScreenSpaceType": 1
}

{
    "m_SGVersion": 0,
    "m_Type": "UnityEditor.ShaderGraph.DivideNode",
    "m_ObjectId": "4dfee86fb6684c40ab6570f983d90766",
    "m_Group": {
        "m_Id": ""
    },
    "m_Name": "Divide",
    "m_DrawState": {
        "m_Expanded": true,
        "m_Position": {
            "serializedVersion": "2",
            "x": 96.800048828125,
            "y": -54.8001708984375,
            "width": 208.0,
            "height": 301.5999755859375
        }
    },
    "m_Slots": [
        {
            "m_Id": "589feaf71f504cd1b7937d7b96554f09"
        },
        {
            "m_Id": "4ba64ada78f54d80b374fd1889a8a1b2"
        },
        {
            "m_Id": "63f8f0f48ae048d3b857407c4831cd27"
        }
    ],
    "synonyms": [
        "division",
        "divided by"
    ],
    "m_Precision": 0,
    "m_PreviewExpanded": true,
    "m_PreviewMode": 0,
    "m_CustomColors": {
        "m_SerializableColors": []
    }
}

{
    "m_SGVersion": 0,
    "m_Type": "UnityEditor.ShaderGraph.Vector1MaterialSlot",
    "m_ObjectId": "500278b1409d423abeccfba660efc712",
    "m_Id": 0,
    "m_DisplayName": "Foam Distance",
    "m_SlotType": 1,
    "m_Hidden": false,
    "m_ShaderOutputName": "Out",
    "m_StageCapability": 3,
    "m_Value": 0.0,
    "m_DefaultValue": 0.0,
    "m_Labels": []
}

{
    "m_SGVersion": 0,
    "m_Type": "UnityEditor.ShaderGraph.Vector4MaterialSlot",
    "m_ObjectId": "586e2e01632b4cbeac0ddbfaf43fa1a5",
    "m_Id": 0,
    "m_DisplayName": "Out",
    "m_SlotType": 1,
    "m_Hidden": false,
    "m_ShaderOutputName": "Out",
    "m_StageCapability": 3,
    "m_Value": {
        "x": 0.0,
        "y": 0.0,
        "z": 0.0,
        "w": 0.0
    },
    "m_DefaultValue": {
        "x": 0.0,
        "y": 0.0,
        "z": 0.0,
        "w": 0.0
    },
    "m_Labels": []
}

{
    "m_SGVersion": 0,
    "m_Type": "UnityEditor.ShaderGraph.DynamicVectorMaterialSlot",
    "m_ObjectId": "589feaf71f504cd1b7937d7b96554f09",
    "m_Id": 0,
    "m_DisplayName": "A",
    "m_SlotType": 0,
    "m_Hidden": false,
    "m_ShaderOutputName": "A",
    "m_StageCapability": 3,
    "m_Value": {
        "x": 0.0,
        "y": 0.0,
        "z": 0.0,
        "w": 0.0
    },
    "m_DefaultValue": {
        "x": 0.0,
        "y": 0.0,
        "z": 0.0,
        "w": 0.0
    }
}

{
    "m_SGVersion": 0,
    "m_Type": "UnityEditor.ShaderGraph.SubGraphOutputNode",
    "m_ObjectId": "5ca5bab7bfa24cfea18865a7c719f31a",
    "m_Group": {
        "m_Id": ""
    },
    "m_Name": "Output",
    "m_DrawState": {
        "m_Expanded": true,
        "m_Position": {
            "serializedVersion": "2",
            "x": 1167.5,
            "y": -266.5000305175781,
            "width": 85.5,
            "height": 77.0
        }
    },
    "m_Slots": [
        {
            "m_Id": "8779a615007c4f7fb81d2f829300e54f"
        }
    ],
    "synonyms": [],
    "m_Precision": 0,
    "m_PreviewExpanded": true,
    "m_PreviewMode": 0,
    "m_CustomColors": {
        "m_SerializableColors": []
    },
    "IsFirstSlotValid": true
}

{
    "m_SGVersion": 0,
    "m_Type": "UnityEditor.ShaderGraph.DynamicVectorMaterialSlot",
    "m_ObjectId": "5f9b51f46646450882e95dbb5fe89ccb",
    "m_Id": 1,
    "m_DisplayName": "B",
    "m_SlotType": 0,
    "m_Hidden": false,
    "m_ShaderOutputName": "B",
    "m_StageCapability": 3,
    "m_Value": {
        "x": 1.0,
        "y": 1.0,
        "z": 1.0,
        "w": 1.0
    },
    "m_DefaultValue": {
        "x": 0.0,
        "y": 0.0,
        "z": 0.0,
        "w": 0.0
    }
}

{
    "m_SGVersion": 0,
    "m_Type": "UnityEditor.ShaderGraph.DynamicVectorMaterialSlot",
    "m_ObjectId": "63f8f0f48ae048d3b857407c4831cd27",
    "m_Id": 2,
    "m_DisplayName": "Out",
    "m_SlotType": 1,
    "m_Hidden": false,
    "m_ShaderOutputName": "Out",
    "m_StageCapability": 3,
    "m_Value": {
        "x": 0.0,
        "y": 0.0,
        "z": 0.0,
        "w": 0.0
    },
    "m_DefaultValue": {
        "x": 0.0,
        "y": 0.0,
        "z": 0.0,
        "w": 0.0
    }
}

{
    "m_SGVersion": 0,
    "m_Type": "UnityEditor.ShaderGraph.SubtractNode",
    "m_ObjectId": "7689c1c4b42d452aac2ca005cd393fe5",
    "m_Group": {
        "m_Id": ""
    },
    "m_Name": "Subtract",
    "m_DrawState": {
        "m_Expanded": true,
        "m_Position": {
            "serializedVersion": "2",
            "x": -212.79998779296876,
            "y": -103.6002197265625,
            "width": 208.0,
            "height": 301.60009765625
        }
    },
    "m_Slots": [
        {
            "m_Id": "405439af04bc4299ad014c4503a62475"
        },
        {
            "m_Id": "12055c182e7a4f72baf16c1de96d23ce"
        },
        {
            "m_Id": "cb5dd40110bf47ba808f0673b3845a3c"
        }
    ],
    "synonyms": [
        "subtraction",
        "remove",
        "minus",
        "take away"
    ],
    "m_Precision": 0,
    "m_PreviewExpanded": true,
    "m_PreviewMode": 0,
    "m_CustomColors": {
        "m_SerializableColors": []
    }
}

{
    "m_SGVersion": 1,
    "m_Type": "UnityEditor.ShaderGraph.SwizzleNode",
    "m_ObjectId": "86ab6d6d6d604f4da07b09dabaaf1805",
    "m_Group": {
        "m_Id": ""
    },
    "m_Name": "Swizzle",
    "m_DrawState": {
        "m_Expanded": true,
        "m_Position": {
            "serializedVersion": "2",
            "x": -597.5999145507813,
            "y": 47.599853515625,
            "width": 208.0,
            "height": 305.5999755859375
        }
    },
    "m_Slots": [
        {
            "m_Id": "d52c9775563c4eb4a0c85947e4ea4a91"
        },
        {
            "m_Id": "c7d7fd81efd243dd8af5086dabe4d07a"
        }
    ],
    "synonyms": [
        "swap",
        "reorder",
        "component mask"
    ],
    "m_Precision": 0,
    "m_PreviewExpanded": true,
    "m_PreviewMode": 0,
    "m_CustomColors": {
        "m_SerializableColors": []
    },
    "_maskInput": "w",
    "convertedMask": "w"
}

{
    "m_SGVersion": 0,
    "m_Type": "UnityEditor.ShaderGraph.Vector4MaterialSlot",
    "m_ObjectId": "8779a615007c4f7fb81d2f829300e54f",
    "m_Id": 0,
    "m_DisplayName": "New",
    "m_SlotType": 0,
    "m_Hidden": false,
    "m_ShaderOutputName": "New",
    "m_StageCapability": 2,
    "m_Value": {
        "x": 0.0,
        "y": 0.0,
        "z": 0.0,
        "w": 0.0
    },
    "m_DefaultValue": {
        "x": 0.0,
        "y": 0.0,
        "z": 0.0,
        "w": 0.0
    },
    "m_Labels": []
}

{
    "m_SGVersion": 0,
    "m_Type": "UnityEditor.ShaderGraph.DynamicVectorMaterialSlot",
    "m_ObjectId": "ae115ed9825e4a3bb1b18501fa474283",
    "m_Id": 0,
    "m_DisplayName": "A",
    "m_SlotType": 0,
    "m_Hidden": false,
    "m_ShaderOutputName": "A",
    "m_StageCapability": 3,
    "m_Value": {
        "x": 0.0,
        "y": 0.0,
        "z": 0.0,
        "w": 0.0
    },
    "m_DefaultValue": {
        "x": 0.0,
        "y": 0.0,
        "z": 0.0,
        "w": 0.0
    }
}

{
    "m_SGVersion": 0,
    "m_Type": "UnityEditor.ShaderGraph.PropertyNode",
    "m_ObjectId": "b1e2ffbdfe8e49ac935054f8ebe62ac5",
    "m_Group": {
        "m_Id": ""
    },
    "m_Name": "Property",
    "m_DrawState": {
        "m_Expanded": true,
        "m_Position": {
            "serializedVersion": "2",
            "x": 659.0,
            "y": -262.0000305175781,
            "width": 166.0,
            "height": 34.000030517578128
        }
    },
    "m_Slots": [
        {
            "m_Id": "d5bb6fe4a98a4bb6be6022199a9ea8d5"
        }
    ],
    "synonyms": [],
    "m_Precision": 0,
    "m_PreviewExpanded": true,
    "m_PreviewMode": 0,
    "m_CustomColors": {
        "m_SerializableColors": []
    },
    "m_Property": {
        "m_Id": "05b4e089431845568fcc34786a8262ea"
    }
}

{
    "m_SGVersion": 0,
    "m_Type": "UnityEditor.ShaderGraph.DynamicVectorMaterialSlot",
    "m_ObjectId": "b375c55f94f04181a554460578dc38ad",
    "m_Id": 1,
    "m_DisplayName": "Out",
    "m_SlotType": 1,
    "m_Hidden": false,
    "m_ShaderOutputName": "Out",
    "m_StageCapability": 3,
    "m_Value": {
        "x": 0.0,
        "y": 0.0,
        "z": 0.0,
        "w": 0.0
    },
    "m_DefaultValue": {
        "x": 0.0,
        "y": 0.0,
        "z": 0.0,
        "w": 0.0
    }
}

{
    "m_SGVersion": 0,
    "m_Type": "UnityEditor.ShaderGraph.Vector4MaterialSlot",
    "m_ObjectId": "b5e46c716dbb49ae941ceedad3da2e54",
    "m_Id": 0,
    "m_DisplayName": "Out",
    "m_SlotType": 1,
    "m_Hidden": false,
    "m_ShaderOutputName": "Out",
    "m_StageCapability": 3,
    "m_Value": {
        "x": 0.0,
        "y": 0.0,
        "z": 0.0,
        "w": 0.0
    },
    "m_DefaultValue": {
        "x": 0.0,
        "y": 0.0,
        "z": 0.0,
        "w": 0.0
    },
    "m_Labels": []
}

{
    "m_SGVersion": 0,
    "m_Type": "UnityEditor.ShaderGraph.DynamicVectorMaterialSlot",
    "m_ObjectId": "b818c98a8d2b488681ec4b7bf0ba6d53",
    "m_Id": 2,
    "m_DisplayName": "T",
    "m_SlotType": 0,
    "m_Hidden": false,
    "m_ShaderOutputName": "T",
    "m_StageCapability": 3,
    "m_Value": {
        "x": 0.0,
        "y": 0.0,
        "z": 0.0,
        "w": 0.0
    },
    "m_DefaultValue": {
        "x": 0.0,
        "y": 0.0,
        "z": 0.0,
        "w": 0.0
    }
}

{
    "m_SGVersion": 0,
    "m_Type": "UnityEditor.ShaderGraph.DynamicVectorMaterialSlot",
    "m_ObjectId": "bf908007d55149ebaa06d30c83bfa018",
    "m_Id": 0,
    "m_DisplayName": "Edge",
    "m_SlotType": 0,
    "m_Hidden": false,
    "m_ShaderOutputName": "Edge",
    "m_StageCapability": 3,
    "m_Value": {
        "x": 0.5,
        "y": 1.0,
        "z": 1.0,
        "w": 1.0
    },
    "m_DefaultValue": {
        "x": 0.0,
        "y": 0.0,
        "z": 0.0,
        "w": 0.0
    }
}

{
    "m_SGVersion": 0,
    "m_Type": "UnityEditor.ShaderGraph.DynamicVectorMaterialSlot",
    "m_ObjectId": "c0eab2bb7e3c4b5d944f455f4bacd841",
    "m_Id": 3,
    "m_DisplayName": "Out",
    "m_SlotType": 1,
    "m_Hidden": false,
    "m_ShaderOutputName": "Out",
    "m_StageCapability": 3,
    "m_Value": {
        "x": 0.0,
        "y": 0.0,
        "z": 0.0,
        "w": 0.0
    },
    "m_DefaultValue": {
        "x": 0.0,
        "y": 0.0,
        "z": 0.0,
        "w": 0.0
    }
}

{
    "m_SGVersion": 0,
    "m_Type": "UnityEditor.ShaderGraph.Vector1MaterialSlot",
    "m_ObjectId": "c7d7fd81efd243dd8af5086dabe4d07a",
    "m_Id": 1,
    "m_DisplayName": "Out",
    "m_SlotType": 1,
    "m_Hidden": false,
    "m_ShaderOutputName": "Out",
    "m_StageCapability": 3,
    "m_Value": 0.0,
    "m_DefaultValue": 0.0,
    "m_Labels": []
}

{
    "m_SGVersion": 0,
    "m_Type": "UnityEditor.ShaderGraph.DynamicVectorMaterialSlot",
    "m_ObjectId": "cb5dd40110bf47ba808f0673b3845a3c",
    "m_Id": 2,
    "m_DisplayName": "Out",
    "m_SlotType": 1,
    "m_Hidden": false,
    "m_ShaderOutputName": "Out",
    "m_StageCapability": 3,
    "m_Value": {
        "x": 0.0,
        "y": 0.0,
        "z": 0.0,
        "w": 0.0
    },
    "m_DefaultValue": {
        "x": 0.0,
        "y": 0.0,
        "z": 0.0,
        "w": 0.0
    }
}

{
    "m_SGVersion": 0,
    "m_Type": "UnityEditor.ShaderGraph.DynamicVectorMaterialSlot",
    "m_ObjectId": "d52c9775563c4eb4a0c85947e4ea4a91",
    "m_Id": 0,
    "m_DisplayName": "In",
    "m_SlotType": 0,
    "m_Hidden": false,
    "m_ShaderOutputName": "In",
    "m_StageCapability": 3,
    "m_Value": {
        "x": 0.0,
        "y": 0.0,
        "z": 0.0,
        "w": 0.0
    },
    "m_DefaultValue": {
        "x": 0.0,
        "y": 0.0,
        "z": 0.0,
        "w": 0.0
    }
}

{
    "m_SGVersion": 0,
    "m_Type": "UnityEditor.ShaderGraph.Vector4MaterialSlot",
    "m_ObjectId": "d5bb6fe4a98a4bb6be6022199a9ea8d5",
    "m_Id": 0,
    "m_DisplayName": "Foam Color Light",
    "m_SlotType": 1,
    "m_Hidden": false,
    "m_ShaderOutputName": "Out",
    "m_StageCapability": 3,
    "m_Value": {
        "x": 0.0,
        "y": 0.0,
        "z": 0.0,
        "w": 0.0
    },
    "m_DefaultValue": {
        "x": 0.0,
        "y": 0.0,
        "z": 0.0,
        "w": 0.0
    },
    "m_Labels": []
}

{
    "m_SGVersion": 0,
    "m_Type": "UnityEditor.ShaderGraph.DynamicVectorMaterialSlot",
    "m_ObjectId": "d5e67387f5ca430d830856a7f1341284",
    "m_Id": 1,
    "m_DisplayName": "B",
    "m_SlotType": 0,
    "m_Hidden": false,
    "m_ShaderOutputName": "B",
    "m_StageCapability": 3,
    "m_Value": {
        "x": 0.0,
        "y": 0.0,
        "z": 0.0,
        "w": 0.0
    },
    "m_DefaultValue": {
        "x": 0.0,
        "y": 0.0,
        "z": 0.0,
        "w": 0.0
    }
}

{
    "m_SGVersion": 0,
    "m_Type": "UnityEditor.ShaderGraph.LerpNode",
    "m_ObjectId": "d6a31a32fab0408ebfe21591781245f7",
    "m_Group": {
        "m_Id": ""
    },
    "m_Name": "Lerp",
    "m_DrawState": {
        "m_Expanded": true,
        "m_Position": {
            "serializedVersion": "2",
            "x": 874.3999633789063,
            "y": -278.0001220703125,
            "width": 208.00003051757813,
            "height": 325.5999755859375
        }
    },
    "m_Slots": [
        {
            "m_Id": "de716295f00444f3ae37bad585638e60"
        },
        {
            "m_Id": "5f9b51f46646450882e95dbb5fe89ccb"
        },
        {
            "m_Id": "b818c98a8d2b488681ec4b7bf0ba6d53"
        },
        {
            "m_Id": "c0eab2bb7e3c4b5d944f455f4bacd841"
        }
    ],
    "synonyms": [
        "mix",
        "blend",
        "linear interpolate"
    ],
    "m_Precision": 0,
    "m_PreviewExpanded": true,
    "m_PreviewMode": 0,
    "m_CustomColors": {
        "m_SerializableColors": []
    }
}

{
    "m_SGVersion": 0,
    "m_Type": "UnityEditor.ShaderGraph.DynamicVectorMaterialSlot",
    "m_ObjectId": "de716295f00444f3ae37bad585638e60",
    "m_Id": 0,
    "m_DisplayName": "A",
    "m_SlotType": 0,
    "m_Hidden": false,
    "m_ShaderOutputName": "A",
    "m_StageCapability": 3,
    "m_Value": {
        "x": 0.0,
        "y": 0.0,
        "z": 0.0,
        "w": 0.0
    },
    "m_DefaultValue": {
        "x": 0.0,
        "y": 0.0,
        "z": 0.0,
        "w": 0.0
    }
}

{
    "m_SGVersion": 0,
    "m_Type": "UnityEditor.ShaderGraph.DynamicVectorMaterialSlot",
    "m_ObjectId": "f2adebff614f4ef18f96056327c8a462",
    "m_Id": 1,
    "m_DisplayName": "In",
    "m_SlotType": 0,
    "m_Hidden": false,
    "m_ShaderOutputName": "In",
    "m_StageCapability": 3,
    "m_Value": {
        "x": 0.0,
        "y": 0.0,
        "z": 0.0,
        "w": 0.0
    },
    "m_DefaultValue": {
        "x": 0.0,
        "y": 0.0,
        "z": 0.0,
        "w": 0.0
    }
}

{
    "m_SGVersion": 0,
    "m_Type": "UnityEditor.ShaderGraph.DynamicVectorMaterialSlot",
    "m_ObjectId": "f7500360bfe34a4bac0efaa898d478f5",
    "m_Id": 2,
    "m_DisplayName": "Out",
    "m_SlotType": 1,
    "m_Hidden": false,
    "m_ShaderOutputName": "Out",
    "m_StageCapability": 3,
    "m_Value": {
        "x": 0.0,
        "y": 0.0,
        "z": 0.0,
        "w": 0.0
    },
    "m_DefaultValue": {
        "x": 0.0,
        "y": 0.0,
        "z": 0.0,
        "w": 0.0
    }
}

